{
	"id": "f4f77445-1ff6-8cee-fcb6-8eb2336dbbc0",
	"name": "rpa-agent",
	"description": "",
	"order": [
		"5cac78ff-fc6e-13ce-e652-7f2b07ad35c5",
		"51467c29-6613-520e-40d4-bfb44afba3d4",
		"6a5253bb-1699-f7d8-b952-d0c933b7e980",
		"31808c39-e7d5-2430-d7e5-c685a6f90aa5",
		"ff5b3c62-469b-1434-6a7a-c1ca18675595",
		"bffffda7-e655-b7ce-b30f-b1e5d485141d"
	],
	"folders": [],
	"timestamp": 1542881675774,
	"owner": "949817",
	"public": false,
	"requests": [
		{
			"id": "31808c39-e7d5-2430-d7e5-c685a6f90aa5",
			"headers": "Authorization: Bearer 821bf832-4047-4a8e-a344-afa03cb1d03a\nContent-Type: application/x-www-form-urlencoded\n",
			"url": "http://localhost:9089/tasks/get-action-path-queue",
			"pathVariables": {},
			"preRequestScript": null,
			"method": "POST",
			"collectionId": "f4f77445-1ff6-8cee-fcb6-8eb2336dbbc0",
			"data": [
				{
					"key": "name",
					"value": "google-search",
					"type": "text",
					"enabled": true
				}
			],
			"dataMode": "urlencoded",
			"name": "tasks/get-action-path-queue",
			"description": "",
			"descriptionFormat": "html",
			"time": 1542900476376,
			"version": 2,
			"responses": [],
			"tests": null,
			"currentHelper": "normal",
			"helperAttributes": {}
		},
		{
			"id": "51467c29-6613-520e-40d4-bfb44afba3d4",
			"headers": "Authorization: Bearer 821bf832-4047-4a8e-a344-afa03cb1d03a\n",
			"url": "http://localhost:9090/oauth2/verify",
			"pathVariables": {},
			"preRequestScript": null,
			"method": "POST",
			"collectionId": "f4f77445-1ff6-8cee-fcb6-8eb2336dbbc0",
			"data": null,
			"dataMode": "params",
			"name": "oauth2/verify",
			"description": "",
			"descriptionFormat": "html",
			"time": 1542899791459,
			"version": 2,
			"responses": [],
			"tests": null,
			"currentHelper": "normal",
			"helperAttributes": {}
		},
		{
			"id": "5cac78ff-fc6e-13ce-e652-7f2b07ad35c5",
			"headers": "Content-Type: application/x-www-form-urlencoded\n",
			"url": "http://localhost:9090/oauth2/token",
			"preRequestScript": null,
			"pathVariables": {},
			"method": "POST",
			"data": [
				{
					"key": "client_id",
					"value": "consectus-rpa",
					"type": "text",
					"enabled": true
				},
				{
					"key": "grant_type",
					"value": "authorization_code",
					"type": "text",
					"enabled": true
				},
				{
					"key": "code",
					"value": "38a58780-733e-47a2-bc56-32a9a62964de",
					"type": "text",
					"enabled": true
				},
				{
					"key": "verifier_code",
					"value": "abcdefgh-ijklmnop",
					"type": "text",
					"enabled": true
				},
				{
					"key": "code_challenge_method",
					"value": "plain",
					"type": "text",
					"enabled": true
				}
			],
			"dataMode": "urlencoded",
			"tests": null,
			"currentHelper": "normal",
			"helperAttributes": {},
			"time": 1542901640862,
			"name": "oauth2/token",
			"description": "",
			"collectionId": "f4f77445-1ff6-8cee-fcb6-8eb2336dbbc0",
			"responses": []
		},
		{
			"id": "6a5253bb-1699-f7d8-b952-d0c933b7e980",
			"headers": "Authorization: Bearer 821bf832-4047-4a8e-a344-afa03cb1d03a\n",
			"url": "http://localhost:9089/tasks/get-action-paths",
			"pathVariables": {},
			"preRequestScript": null,
			"method": "POST",
			"collectionId": "f4f77445-1ff6-8cee-fcb6-8eb2336dbbc0",
			"data": null,
			"dataMode": "params",
			"name": "tasks/get-action-paths",
			"description": "",
			"descriptionFormat": "html",
			"time": 1542900409254,
			"version": 2,
			"responses": [],
			"tests": null,
			"currentHelper": "normal",
			"helperAttributes": {}
		},
		{
			"id": "bffffda7-e655-b7ce-b30f-b1e5d485141d",
			"headers": "Authorization: Bearer 821bf832-4047-4a8e-a344-afa03cb1d03a\nContent-Type: application/x-www-form-urlencoded\n",
			"url": "http://localhost:9089/tasks/execute-action-path",
			"pathVariables": {},
			"preRequestScript": null,
			"method": "POST",
			"collectionId": "f4f77445-1ff6-8cee-fcb6-8eb2336dbbc0",
			"data": [
				{
					"key": "name",
					"value": "google-search",
					"type": "text",
					"enabled": true
				},
				{
					"key": "params",
					"value": "{}",
					"type": "text",
					"enabled": true
				}
			],
			"dataMode": "urlencoded",
			"name": "tasks/execute-action-path",
			"description": "",
			"descriptionFormat": "html",
			"time": 1542901631277,
			"version": 2,
			"responses": [],
			"tests": null,
			"currentHelper": "normal",
			"helperAttributes": {}
		},
		{
			"id": "ff5b3c62-469b-1434-6a7a-c1ca18675595",
			"headers": "Authorization: Bearer 821bf832-4047-4a8e-a344-afa03cb1d03a\nContent-Type: application/x-www-form-urlencoded\n",
			"url": "http://localhost:9089/tasks/get-action-path-queue-status",
			"pathVariables": {},
			"preRequestScript": null,
			"method": "POST",
			"collectionId": "f4f77445-1ff6-8cee-fcb6-8eb2336dbbc0",
			"data": [
				{
					"key": "name",
					"value": "google-search",
					"type": "text",
					"enabled": true
				},
				{
					"key": "queue_id",
					"value": "0",
					"type": "text",
					"enabled": true
				}
			],
			"dataMode": "urlencoded",
			"name": "tasks/get-action-path-queue-status",
			"description": "",
			"descriptionFormat": "html",
			"time": 1542900504598,
			"version": 2,
			"responses": [],
			"tests": null,
			"currentHelper": "normal",
			"helperAttributes": {}
		}
	]
}