{
    "swagger": "2.0",
    "info": {
        "version": "1.0.0",
        "title": "Consectus RPA Agent API Docs",
        "description": "The RPA Agent hosts all the API that enable a machine to become an active RPA Agent within an enterprise. The API is secured using client id and Oauth2.0 Authorization_Code flow.",
        "termsOfService": "http://consectus.com/rpa-server/terms",
        "contact": {
            "email": "santosh@consectus.com"
        },
        "license": {
            "name": "Proprietary License"
        }
    },
    "schemes": [
        "http"
    ],
    "host": "localhost:8888",
    "paths": {
        "/oauth2/authorization_code": {
            "post": {
                "tags": [
                    "OAUTH2.0"
                ],
                "consumes": [
                    "application/x-www-form-urlencoded"
                ],
                "summary": "Get Authorization Code",
                "description": "This API requires a secure code_challenge to be created using a random verifier_code and passed with client_id",
                "parameters": [
                    {
                        "in": "formData",
                        "name": "client_id",
                        "schema":{
                            "type": "string"
                        },
                        "description": "unique client_id to be provided",
                        "required": true
                    },
                    {
                        "in": "response_type",
                        "name": "response_type",
                        "type": "string",
                        "description": "must be passed as 'code'",
                        "required": true
                    },
                    {
                        "in": "state",
                        "name": "state",
                        "type": "string",
                        "description": "A unique value to further verify in subsequent calls.",
                        "required": true
                    },
                    {
                        "in": "code_challenge",
                        "name": "code_challenge",
                        "type": "string",
                        "description": "Code challenge should be either plain random unique characters generated or S265 encrypted from the random characters",
                        "required": true
                    },
                    {
                        "in": "code_challenge_method",
                        "name": "code_challenge_method",
                        "type": "string",
                        "description": "If 'plain', the code_challenge & subsequent oauthe2/token call verifier code will be compared. If 'S256' then a secure hash should created using SHA256 and passed in this call.",
                        "required": true
                    }
                ],
                "responses": {
                    "200": {
                        "description": "OK",
                        "schema": {
                            "$ref": "#/definitions/AuthorizationCode"
                        }
                    }
                }
            }
        },
        "/tasks": {
            "post": {
                "tags": [
                    "Tasks"
                ],
                "summary": "Add a new task",
                "description": "Adds a new task to the list of agent tasks",
                "operationId": "postTask",
                "consumes": [
                    "application/json",
                    "application/xml"
                ],
                "produces": [
                    "application/xml",
                    "application/json"
                ],
                "parameters": [
                    {
                        "in": "body",
                        "name": "body",
                        "description": "Pet object that needs to be added to the store",
                        "required": true,
                        "schema": {
                            "$ref": "#/definitions/Task"
                        }
                    }
                ],
                "responses": {
                    "405": {
                        "description": "Invalid input"
                    }
                }
            }
        }
    },
    "definitions": {
        "AuthorizationCode": {
            "type": "object",
            "properties": {
                "state": {
                    "type": "string"
                },
                "code": {
                    "type": "string"
                }
            },
            "json": {
                "name": "AuthorizationCode"
            },
            "examples": {
                "state": "whatever you passed",
                "code": "af42b25f-d863-4501-a3b1-613a13b7c24c"
            }
        }
    }
}